<svg xmlns="http://www.w3.org/2000/svg" width="12" height="15" viewBox="0 0 12 15">
  <path style="fill: #ff272e;fill-rule: evenodd;" d="M850,855a6,6,0,0,1,6,6c0,3.314-6,9-6,9s-6-5.686-6-9A6,6,0,0,1,850,855Zm0,3a2,2,0,1,1-2,2A2,2,0,0,1,850,858Z" transform="translate(-844 -855)"/>
</svg>
