<svg xmlns="http://www.w3.org/2000/svg" width="20" height="20.03" viewBox="0 0 20 20.03">
  <metadata><?xpacket begin="﻿" id="W5M0MpCehiHzreSzNTczkc9d"?>
<x:xmpmeta xmlns:x="adobe:ns:meta/" x:xmptk="Adobe XMP Core 5.6-c138 79.159824, 2016/09/14-01:09:01        ">
   <rdf:RDF xmlns:rdf="http://www.w3.org/1999/02/22-rdf-syntax-ns#">
      <rdf:Description rdf:about=""/>
   </rdf:RDF>
</x:xmpmeta>
                                                                                                    
                                                                                                    
                                                                                                    
                                                                                                    
                                                                                                    
                                                                                                    
                                                                                                    
                                                                                                    
                                                                                                    
                                                                                                    
                                                                                                    
                                                                                                    
                                                                                                    
                                                                                                    
                                                                                                    
                                                                                                    
                                                                                                    
                                                                                                    
                                                                                                    
                                                                                                    
                           
<?xpacket end="w"?></metadata>
<defs>
    <style>
      .cls-1 {
        fill: #fff;
        fill-rule: evenodd;
      }
    </style>
  </defs>
  <path id="Forma_1_copy" data-name="Forma 1 copy" class="cls-1" d="M666.473,7559.56c1.982,1.98,4.276,3.87,5.176,2.96,1.289-1.31,2.083-2.45,4.944-.15s0.676,3.85-.573,5.11c-1.441,1.47-6.838.11-12.188-5.24s-6.741-10.77-5.3-12.23c1.249-1.27,2.769-3.48,5.072-.62s1.18,3.67-.109,4.98C662.6,7555.28,664.491,7557.58,666.473,7559.56Z" transform="translate(-658 -7548)"/>
</svg>
